…
INFO: Number of threads, 1
241.266749 seconds (3.75 G allocations: 223.884 GiB, 20.65% gc time)
WARN: file GSE82158_shielded_chimera_norm_counts_iteration_8_result.tsv exists and will be overwritten.
INFO: N of 9 genes in the 8th calculation is a singular matrix, and there are 2983 differential genes.Save the results (gene name, delta, sd_delta, ps GSE82158_shielded_chimera_norm_counts_iteration_8_result.tsv file except for the genes of singular matrix.
INFO: The distribution maps of sd_delta, Pval and Padj of the whole genes in the results of the 8th iteration were drawn. Save as GSE82158_shielded_corm_counts_8_sd_delta_graph.pdf、GSE82158_shielded_chimera_norm_counts_8_Pval_graph.pdf、和GSE82158_shielded_chimera_norm_counts_8_Padj_graph.pdf
INFO: the number of non-managed genes in the 8th iteration is 2983, the expression profile (gene name, whether to manage gene, sample) has been saved2158_shielded_chimera_norm_counts_hk_nonhk_gene_8.tsv.
INFO: Number of threads, 1
241.339506 seconds (3.75 G allocations: 223.674 GiB, 20.54% gc time)
WARN: file GSE82158_shielded_chimera_norm_counts_iteration_9_result.tsv exists and will be overwritten.
INFO: N of 10 genes in the 9th calculation is a singular matrix, and there are 2983 differential genes.Save the results (gene name, delta, sd_delta,as GSE82158_shielded_chimera_norm_counts_iteration_9_result.tsv file except for the genes of singular matrix.
INFO: The distribution maps of sd_delta, Pval and Padj of the whole genes in the results of the 9th iteration were drawn. Save as GSE82158_shielded_corm_counts_9_sd_delta_graph.pdf、GSE82158_shielded_chimera_norm_counts_9_Pval_graph.pdf、和GSE82158_shielded_chimera_norm_counts_9_Padj_graph.pdf
INFO: After 9 iterations, the obtained list of differential genes (gene name, delta, sd_delta, p, FDR) is saved as GSE82158_shielded_chimera_norm_coult.tsv file, Save differential gene expression profile as GSE82158_shielded_chimera_norm_counts_deg_exp.tsv.
INFO: The final calculation results (gene name, delta, sd_delta, p, FDR) without threshold screening are GSE82158_shielded_chimera_norm_counts_iteratsult.tsv files.
INFO: The expression heat map of DEGs was drawn and saved as GSE82158_shielded_chimera_norm_counts_deg_exp_graph.pdf
2983×5 DataFrame
  Row │ names               delta     sd_delta  Pval          Padj
      │ String              Float64   Float64   Float64       Float64
──────┼────────────────────────────────────────────────────────────────────
    1 │ ENSMUSG00000000028  0.362627   6.31539  1.34738e-10   8.78051e-10
    2 │ ENSMUSG00000000093  0.443033  11.4647   9.92258e-31   9.53572e-30
    3 │ ENSMUSG00000000125  0.483575   9.0957   4.69916e-20   3.75342e-19
    4 │ ENSMUSG00000000127  0.214791   3.84485  6.03138e-5    0.000329449
    5 │ ENSMUSG00000000282  1.17752   17.3767   6.19136e-68   9.46643e-67
    6 │ ENSMUSG00000000301  0.646007  13.0987   1.67483e-39   1.86026e-38
    7 │ ENSMUSG00000000384  0.34975    6.36951  9.48195e-11   6.21793e-10
    8 │ ENSMUSG00000000402  0.108144   2.39683  0.0082687     0.0407222
    9 │ ENSMUSG00000000531  0.474683   8.68839  1.83812e-18   1.42611e-17
   10 │ ENSMUSG00000000579  1.17545   18.6163   1.18496e-77   2.02106e-76
   11 │ ENSMUSG00000000823  0.390372   6.09944  5.32192e-10   3.41486e-9
   12 │ ENSMUSG00000000902  0.594111   8.57752  4.84698e-18   3.72298e-17
   13 │ ENSMUSG00000000916  0.152703   2.71585  0.00330527    0.0167058
   14 │ ENSMUSG00000000934  0.371489   6.3261   1.25719e-10   8.2092e-10
   15 │ ENSMUSG00000000958  0.539068   8.19507  1.25225e-16   9.38676e-16
   16 │ ENSMUSG00000001029  2.55301   46.0771   0.0           0.0
  ⋮   │         ⋮              ⋮         ⋮           ⋮             ⋮
 2968 │ ENSMUSG00000103380  0.577827   9.8845   2.4299e-23    2.0674e-22
 2969 │ ENSMUSG00000103400  0.280895   5.19531  1.02192e-7    6.1496e-7
 2970 │ ENSMUSG00000103475  1.45721   31.1013   1.1564e-212   5.26576e-211
 2971 │ ENSMUSG00000103547  0.217257   4.77889  8.81339e-7    5.15095e-6
 2972 │ ENSMUSG00000103570  0.195213   3.88629  5.08934e-5    0.000278618
 2973 │ ENSMUSG00000103622  0.855458  17.9155   4.46373e-72   7.15421e-71
 2974 │ ENSMUSG00000103630  0.357111   8.77358  8.65405e-19   6.75367e-18
 2975 │ ENSMUSG00000103901  1.43502   30.3882   3.92719e-203  1.69834e-201
 2976 │ ENSMUSG00000103922  0.157237   3.34962  0.000404614   0.00213126
 2977 │ ENSMUSG00000104350  0.231987   5.33236  4.84733e-8    2.94119e-7
 2978 │ ENSMUSG00000104367  0.998009  21.1783   7.5698e-100   1.58521e-98
 2979 │ ENSMUSG00000104377  0.618824  11.5757   2.73503e-31   2.65634e-30
 2980 │ ENSMUSG00000104444  0.331103   6.42655  6.52645e-11   4.29911e-10
 2981 │ ENSMUSG00000104453  1.17714   19.2817   3.82553e-83   6.82756e-82
 2982 │ ENSMUSG00000104467  1.02923   22.8895   2.95818e-116  6.94056e-115
 2983 │ ENSMUSG00000104523  1.70206   24.8618   9.62817e-137  2.68578e-135
                                                          2951 rows omitted
…
